[api-updater (non-obsolete-error-filter)] 30/11/2021 20:04:46 : Starting C:/Program Files/Unity/Hub/Editor/2020.3.19f1/Editor/Data/Tools/ScriptUpdater/APIUpdater.NonObsoleteApiUpdaterDetector.exe
[api-updater (non-obsolete-error-filter)] 
----------------------------------
jit/startup time      : 5880,9703ms
moved types parse time: 241ms
candidates parse time : 1ms
C# parse time         : 191ms
candidates check time : 31ms
console write time    : 0ms

[api-updater (non-obsolete-error-filter)] 30/11/2021 20:26:38 : Starting C:/Program Files/Unity/Hub/Editor/2020.3.19f1/Editor/Data/Tools/ScriptUpdater/APIUpdater.NonObsoleteApiUpdaterDetector.exe
[api-updater (non-obsolete-error-filter)] 
----------------------------------
jit/startup time      : 543,9934ms
moved types parse time: 43ms
candidates parse time : 1ms
C# parse time         : 156ms
candidates check time : 24ms
console write time    : 0ms

[api-updater (non-obsolete-error-filter)] 30/11/2021 21:14:31 : Starting C:/Program Files/Unity/Hub/Editor/2020.3.19f1/Editor/Data/Tools/ScriptUpdater/APIUpdater.NonObsoleteApiUpdaterDetector.exe
[api-updater (non-obsolete-error-filter)] 
----------------------------------
jit/startup time      : 659,3909ms
moved types parse time: 42ms
candidates parse time : 1ms
C# parse time         : 157ms
candidates check time : 25ms
console write time    : 0ms

[api-updater (non-obsolete-error-filter)] 02/12/2021 17:15:39 : Starting C:/Program Files/Unity/Hub/Editor/2020.3.19f1/Editor/Data/Tools/ScriptUpdater/APIUpdater.NonObsoleteApiUpdaterDetector.exe
[api-updater (non-obsolete-error-filter)] 
----------------------------------
jit/startup time      : 1032,9378ms
moved types parse time: 55ms
candidates parse time : 1ms
C# parse time         : 197ms
candidates check time : 25ms
console write time    : 1ms

[api-updater (non-obsolete-error-filter)] 02/12/2021 17:32:19 : Starting C:/Program Files/Unity/Hub/Editor/2020.3.19f1/Editor/Data/Tools/ScriptUpdater/APIUpdater.NonObsoleteApiUpdaterDetector.exe
[api-updater (non-obsolete-error-filter)] Exception caught while loading types from C:\Users\sgsse\OneDrive\Escritorio\repositorios trabajos\Videojuego 2D\juego2d\juego2D\Library\ScriptAssemblies\Unity.TextMeshPro.Editor.dll (some types may not be loaded)
	Exception of type 'System.Reflection.ReflectionTypeLoadException' was thrown.
	  at (wrapper managed-to-native) System.Reflection.Assembly.GetTypes(System.Reflection.Assembly,bool)
  at System.Reflection.Assembly.GetTypes () [0x00000] in <695d1cc93cca45069c528c15c9fdd749>:0 
  at APIUpdater.NonObsoleteApiUpdaterDetector.ExtraInfoParser+<LoadTypesWithMovedFromAttributeAsync>d__3.MoveNext () [0x000c8] in <68bff7873e0e4aa69a14dfc30bebbe3e>:0 
	Could not load file or assembly 'UnityEditor.CoreModule, Version=0.0.0.0, Culture=neutral, PublicKeyToken=null' or one of its dependencies.

[api-updater (non-obsolete-error-filter)] 
----------------------------------
jit/startup time      : 458,4717ms
moved types parse time: 43ms
candidates parse time : 1ms
C# parse time         : 184ms
candidates check time : 23ms
console write time    : 0ms

